002;Nome da musica?;amigo;amor;fe;amigo;saudades;amigo_rc
003;Quem e o cantor?;Luiz Gonzaga;Roberto Carlos;Luiz Gonzaga;Luiz Ricardo;Jorge e Mateus;asa_branca
004;Quem e o cantor?;Felipe Dylon;Felipe Dylon;Armandinho;Ricardo;Vinny;musa_verao
005;Nome da musica?;Filha;Saudades;Aniversario;Filha;Sentimentos;filha
006;Decada de lancamento;90;80;90;00;10;dig-dig-joy
007;nome da musica?;Ragatanga;Diego dancando;Ragatanga;o Malandro;o ritmo desejado;ragatanga
008;Qual a banda?;Legiao Urbana;Blitz;Legiao Urbana;Titans;Mutantes;pais_filhos
