32;Qual a banda?;Tears for Fears;Last Kings;Kaiser Chiefs;Tears for Fears;Ramones;rule_world
33;Qual a banda?;Blur;Green Day;Blur;Fallout Boys;The Police;song_2
34;Nome da musica?;Elephant Gun;Nantes;Beirut;Seasons;Elephant Gun;elephant_gun
35;A que filme pertence essa musica?;Tron;Vingadores;Tron;Insurgency;Birdman;dezzered
36;Que album da banda Daft Punk tem essa musica?;Discovery;Humans After All;R.A.M.;Discovery;Alive (2007);face_to_face
